Benjamin T. Skinner | University of Florida
…
Compare speed with base R function when measuring the distance between
every United States population-weighted county centroid as measured in
2010 (N = 3,143 with complete measurements).

Load data

## libraries
libs <- c("tidyverse","microbenchmark","geosphere","distRcpp")
sapply(libs, require, character.only = TRUE)

## read data
df <- get(data(county_centers))
df

## # A tibble: 3,147 x 9
##    fips  clon00 clat00 clon10 clat10 pclon00 pclat00 pclon10 pclat10
##    <chr>  <dbl>  <dbl>  <dbl>  <dbl>   <dbl>   <dbl>   <dbl>   <dbl>
##  1 01001  -86.6   32.5  -86.6   32.5   -86.5    32.5   -86.5    32.5
##  2 01003  -87.7   30.6  -87.7   30.7   -87.8    30.6   -87.8    30.5
##  3 01005  -85.3   31.9  -85.4   31.9   -85.3    31.8   -85.3    31.8
##  4 01007  -87.1   33.0  -87.1   33.0   -87.1    33.0   -87.1    33.0
##  5 01009  -86.6   34.0  -86.6   34.0   -86.6    34.0   -86.6    34.0
##  6 01011  -85.7   32.1  -85.7   32.1   -85.7    32.1   -85.7    32.1
##  7 01013  -86.7   31.7  -86.7   31.8   -86.7    31.8   -86.7    31.8
##  8 01015  -85.8   33.7  -85.8   33.8   -85.8    33.7   -85.8    33.7
##  9 01017  -85.3   32.9  -85.4   32.9   -85.3    32.9   -85.3    32.9
## 10 01019  -85.6   34.2  -85.7   34.1   -85.6    34.2   -85.6    34.2
## # … with 3,137 more rows
…
ct <- get(data(county_centers)) %>%
    rename(id = fips,
           lon = pclon10,
           lat = pclat10) %>%
    drop_na()
bg

## # A tibble: 217,330 x 3
##    id             lon   lat
##    <chr>        <dbl> <dbl>
##  1 010010201001 -86.5  32.5
##  2 010010201002 -86.5  32.5
##  3 010010202001 -86.5  32.5
##  4 010010202002 -86.5  32.5
##  5 010010203001 -86.5  32.5
##  6 010010203002 -86.5  32.5
##  7 010010204001 -86.4  32.5
##  8 010010204002 -86.4  32.5
##  9 010010204003 -86.4  32.5
## 10 010010204004 -86.4  32.5
## # … with 217,320 more rows

ct

## # A tibble: 3,137 x 9
##    id    clon00 clat00 clon10 clat10 pclon00 pclat00   lon   lat
##    <chr>  <dbl>  <dbl>  <dbl>  <dbl>   <dbl>   <dbl> <dbl> <dbl>
##  1 01001  -86.6   32.5  -86.6   32.5   -86.5    32.5 -86.5  32.5
##  2 01003  -87.7   30.6  -87.7   30.7   -87.8    30.6 -87.8  30.5
##  3 01005  -85.3   31.9  -85.4   31.9   -85.3    31.8 -85.3  31.8
##  4 01007  -87.1   33.0  -87.1   33.0   -87.1    33.0 -87.1  33.0
##  5 01009  -86.6   34.0  -86.6   34.0   -86.6    34.0 -86.6  34.0
##  6 01011  -85.7   32.1  -85.7   32.1   -85.7    32.1 -85.7  32.1
##  7 01013  -86.7   31.7  -86.7   31.8   -86.7    31.8 -86.7  31.8
##  8 01015  -85.8   33.7  -85.8   33.8   -85.8    33.7 -85.8  33.7
##  9 01017  -85.3   32.9  -85.4   32.9   -85.3    32.9 -85.3  32.9
## 10 01019  -85.6   34.2  -85.7   34.1   -85.6    34.2 -85.6  34.2
## # … with 3,127 more rows
…
